%YAML 1.1
%TAG !u! tag:unity3d.com,2011:
--- !u!74 &7400000
AnimationClip:
  m_ObjectHideFlags: 0
  m_PrefabParentObject: {fileID: 0}
  m_PrefabInternal: {fileID: 0}
  m_Name: Slice
  serializedVersion: 6
  m_Legacy: 0
  m_Compressed: 0
  m_UseHighQualityCurve: 1
  m_RotationCurves: []
  m_CompressedRotationCurves: []
  m_EulerCurves: []
  m_PositionCurves: []
  m_ScaleCurves: []
  m_FloatCurves: []
  m_PPtrCurves:
  - curve:
    - time: 0
      value: {fileID: 21300000, guid: e53271212eabbea419024a21dd83962e, type: 3}
    - time: 0.083333336
      value: {fileID: 21300000, guid: 0aa2de2a7d33b7e43829668d9103327b, type: 3}
    - time: 0.16666667
      value: {fileID: 21300000, guid: 2f971e848392e154f982a030a5369d4d, type: 3}
    - time: 0.25
      value: {fileID: 21300000, guid: 89e7349c3d3b9c046a0fec18c7262810, type: 3}
    - time: 0.33333334
      value: {fileID: 21300000, guid: 41db2f65a88709a4d8d2c383744c0aeb, type: 3}
    - time: 0.41666666
      value: {fileID: 21300000, guid: b19393250baabee4c94e83f70fdaca7e, type: 3}
    - time: 0.5
      value: {fileID: 21300000, guid: 122d85b332236b44dbbbd55793e9c6bf, type: 3}
    - time: 0.5833333
      value: {fileID: 21300000, guid: 68ca0f5a005c8da4fb6cc191b9a36fcd, type: 3}
    - time: 0.6666667
      value: {fileID: 21300000, guid: db46e219c50565a488b55f220e9defdd, type: 3}
    - time: 0.75
      value: {fileID: 21300000, guid: 0cf31ff1589e2254e84ff31c56c78848, type: 3}
    attribute: m_Sprite
    path: 
    classID: 212
    script: {fileID: 0}
  m_SampleRate: 12
  m_WrapMode: 0
  m_Bounds:
    m_Center: {x: 0, y: 0, z: 0}
    m_Extent: {x: 0, y: 0, z: 0}
  m_ClipBindingConstant:
    genericBindings:
    - path: 0
      attribute: 0
      script: {fileID: 0}
      classID: 212
      customType: 23
      isPPtrCurve: 1
    pptrCurveMapping:
    - {fileID: 21300000, guid: e53271212eabbea419024a21dd83962e, type: 3}
    - {fileID: 21300000, guid: 0aa2de2a7d33b7e43829668d9103327b, type: 3}
    - {fileID: 21300000, guid: 2f971e848392e154f982a030a5369d4d, type: 3}
    - {fileID: 21300000, guid: 89e7349c3d3b9c046a0fec18c7262810, type: 3}
    - {fileID: 21300000, guid: 41db2f65a88709a4d8d2c383744c0aeb, type: 3}
    - {fileID: 21300000, guid: b19393250baabee4c94e83f70fdaca7e, type: 3}
    - {fileID: 21300000, guid: 122d85b332236b44dbbbd55793e9c6bf, type: 3}
    - {fileID: 21300000, guid: 68ca0f5a005c8da4fb6cc191b9a36fcd, type: 3}
    - {fileID: 21300000, guid: db46e219c50565a488b55f220e9defdd, type: 3}
    - {fileID: 21300000, guid: 0cf31ff1589e2254e84ff31c56c78848, type: 3}
  m_AnimationClipSettings:
    serializedVersion: 2
    m_AdditiveReferencePoseClip: {fileID: 0}
    m_AdditiveReferencePoseTime: 0
    m_StartTime: 0
    m_StopTime: 0.8333333
    m_OrientationOffsetY: 0
    m_Level: 0
    m_CycleOffset: 0
    m_HasAdditiveReferencePose: 0
    m_LoopTime: 0
    m_LoopBlend: 0
    m_LoopBlendOrientation: 0
    m_LoopBlendPositionY: 0
    m_LoopBlendPositionXZ: 0
    m_KeepOriginalOrientation: 0
    m_KeepOriginalPositionY: 1
    m_KeepOriginalPositionXZ: 0
    m_HeightFromFeet: 0
    m_Mirror: 0
  m_EditorCurves: []
  m_EulerEditorCurves: []
  m_HasGenericRootTransform: 0
  m_HasMotionFloatCurves: 0
  m_GenerateMotionCurves: 0
  m_Events: []
