%YAML 1.1
%TAG !u! tag:unity3d.com,2011:
--- !u!74 &7400000
AnimationClip:
  m_ObjectHideFlags: 0
  m_PrefabParentObject: {fileID: 0}
  m_PrefabInternal: {fileID: 0}
  m_Name: DeathRight
  serializedVersion: 6
  m_Legacy: 0
  m_Compressed: 0
  m_UseHighQualityCurve: 1
  m_RotationCurves: []
  m_CompressedRotationCurves: []
  m_EulerCurves: []
  m_PositionCurves: []
  m_ScaleCurves: []
  m_FloatCurves: []
  m_PPtrCurves:
  - curve:
    - time: 0
      value: {fileID: 21300000, guid: 9e0e4edf862deb74cbf5686b037dc247, type: 3}
    - time: 0.083333336
      value: {fileID: 21300000, guid: e386f2fff370998459f8cf63c487edec, type: 3}
    - time: 0.16666667
      value: {fileID: 21300000, guid: 4c11f4aa3cb8f5845b6159524a6e7a26, type: 3}
    - time: 0.25
      value: {fileID: 21300000, guid: bfd305e3badbe26448cbd6a1ae1e843b, type: 3}
    - time: 0.33333334
      value: {fileID: 21300000, guid: 2c15739ce0539ad4c86f923ec91ca518, type: 3}
    - time: 0.41666666
      value: {fileID: 21300000, guid: 2e7e1ab56feee074cb2ca096f4497b11, type: 3}
    - time: 0.5
      value: {fileID: 21300000, guid: 14e53fb20cc87254ca203caabd19c6c9, type: 3}
    - time: 0.5833333
      value: {fileID: 21300000, guid: 89ede0af24aab71428328a7e3893956e, type: 3}
    - time: 0.6666667
      value: {fileID: 21300000, guid: 84aa1bab2b9815e45ab942e673b0f5e0, type: 3}
    - time: 0.75
      value: {fileID: 21300000, guid: 73a2240fe6e9a5046810c76cbbbc6f66, type: 3}
    attribute: m_Sprite
    path: 
    classID: 212
    script: {fileID: 0}
  m_SampleRate: 12
  m_WrapMode: 0
  m_Bounds:
    m_Center: {x: 0, y: 0, z: 0}
    m_Extent: {x: 0, y: 0, z: 0}
  m_ClipBindingConstant:
    genericBindings:
    - path: 0
      attribute: 0
      script: {fileID: 0}
      classID: 212
      customType: 23
      isPPtrCurve: 1
    pptrCurveMapping:
    - {fileID: 21300000, guid: 9e0e4edf862deb74cbf5686b037dc247, type: 3}
    - {fileID: 21300000, guid: e386f2fff370998459f8cf63c487edec, type: 3}
    - {fileID: 21300000, guid: 4c11f4aa3cb8f5845b6159524a6e7a26, type: 3}
    - {fileID: 21300000, guid: bfd305e3badbe26448cbd6a1ae1e843b, type: 3}
    - {fileID: 21300000, guid: 2c15739ce0539ad4c86f923ec91ca518, type: 3}
    - {fileID: 21300000, guid: 2e7e1ab56feee074cb2ca096f4497b11, type: 3}
    - {fileID: 21300000, guid: 14e53fb20cc87254ca203caabd19c6c9, type: 3}
    - {fileID: 21300000, guid: 89ede0af24aab71428328a7e3893956e, type: 3}
    - {fileID: 21300000, guid: 84aa1bab2b9815e45ab942e673b0f5e0, type: 3}
    - {fileID: 21300000, guid: 73a2240fe6e9a5046810c76cbbbc6f66, type: 3}
  m_AnimationClipSettings:
    serializedVersion: 2
    m_AdditiveReferencePoseClip: {fileID: 0}
    m_AdditiveReferencePoseTime: 0
    m_StartTime: 0
    m_StopTime: 0.8333333
    m_OrientationOffsetY: 0
    m_Level: 0
    m_CycleOffset: 0
    m_HasAdditiveReferencePose: 0
    m_LoopTime: 0
    m_LoopBlend: 0
    m_LoopBlendOrientation: 0
    m_LoopBlendPositionY: 0
    m_LoopBlendPositionXZ: 0
    m_KeepOriginalOrientation: 0
    m_KeepOriginalPositionY: 1
    m_KeepOriginalPositionXZ: 0
    m_HeightFromFeet: 0
    m_Mirror: 0
  m_EditorCurves: []
  m_EulerEditorCurves: []
  m_HasGenericRootTransform: 0
  m_HasMotionFloatCurves: 0
  m_GenerateMotionCurves: 0
  m_Events: []
